OpenAlexR
…
Nous pouvons également inclure plusieurs institutions qui correspondent à notre recherche.

univ_ca <- oa_fetch(
  entity = 'institutions',
  country_code='CA',
  works_count=">1000"
) 
univ_ca

# A tibble: 355 × 21
   id                  display_name display_name_alterna…¹ display_name_acronyms
   <chr>               <chr>        <list>                 <list>               
 1 https://openalex.o… University … <chr [1]>              <lgl [1]>            
 2 https://openalex.o… University … <chr [1]>              <chr [1]>            
 3 https://openalex.o… McGill Univ… <chr [1]>              <lgl [1]>            
 4 https://openalex.o… University … <chr [2]>              <lgl [1]>            
 5 https://openalex.o… University … <chr [1]>              <chr [1]>            
 6 https://openalex.o… Université … <chr [2]>              <chr [1]>            
 7 https://openalex.o… McMaster Un… <lgl [1]>              <lgl [1]>            
 8 https://openalex.o… Western Uni… <chr [2]>              <chr [1]>            
 9 https://openalex.o… University … <chr [1]>              <lgl [1]>            
10 https://openalex.o… University … <chr [2]>              <chr [1]>            
# ℹ 345 more rows
# ℹ abbreviated name: ¹​display_name_alternatives
# ℹ 17 more variables: display_name_international <list>, ror <chr>,
#   ids <list>, country_code <chr>, geo <list>, type <chr>, homepage_url <chr>,
#   image_url <chr>, image_thumbnail_url <chr>, associated_institutions <list>,
#   works_count <int>, cited_by_count <int>, counts_by_year <list>,
#   works_api_url <chr>, topics <list>, updated_date <chr>, …
…
